^C:\USERS\HENRY\SOURCE\REPOS\MAINLAB8\MAINLAB8\ITEMTOPURCHASE.CPP|C:\USERS\HENRY\SOURCE\REPOS\MAINLAB8\MAINLAB8\MAIN.CPP
C:\USERS\HENRY\SOURCE\REPOS\MAINLAB8\MAINLAB8\DEBUG\VC141.PDB
C:\USERS\HENRY\SOURCE\REPOS\MAINLAB8\MAINLAB8\DEBUG\VC141.IDB
C:\USERS\HENRY\SOURCE\REPOS\MAINLAB8\MAINLAB8\DEBUG\MAIN.OBJ
C:\USERS\HENRY\SOURCE\REPOS\MAINLAB8\MAINLAB8\DEBUG\ITEMTOPURCHASE.OBJ
^C:\USERS\HENRY\SOURCE\REPOS\MAINLAB8\MAINLAB8\ITEMTOPURCHASE.CPP|C:\USERS\HENRY\SOURCE\REPOS\MAINLAB8\MAINLAB8\SHOPPINGCART.CPP
C:\USERS\HENRY\SOURCE\REPOS\MAINLAB8\MAINLAB8\DEBUG\VC141.PDB
C:\USERS\HENRY\SOURCE\REPOS\MAINLAB8\MAINLAB8\DEBUG\VC141.IDB
C:\USERS\HENRY\SOURCE\REPOS\MAINLAB8\MAINLAB8\DEBUG\ITEMTOPURCHASE.OBJ
^C:\USERS\HENRY\SOURCE\REPOS\MAINLAB8\MAINLAB8\ITEMTOPURCHASE.CPP|C:\USERS\HENRY\SOURCE\REPOS\MAINLAB8\MAINLAB8\MAIN.CPP|C:\USERS\HENRY\SOURCE\REPOS\MAINLAB8\MAINLAB8\SHOPPINGCART.CPP
C:\USERS\HENRY\SOURCE\REPOS\MAINLAB8\MAINLAB8\DEBUG\VC141.PDB
C:\USERS\HENRY\SOURCE\REPOS\MAINLAB8\MAINLAB8\DEBUG\VC141.IDB
C:\USERS\HENRY\SOURCE\REPOS\MAINLAB8\MAINLAB8\DEBUG\MAIN.OBJ
C:\USERS\HENRY\SOURCE\REPOS\MAINLAB8\MAINLAB8\DEBUG\SHOPPINGCART.OBJ
C:\USERS\HENRY\SOURCE\REPOS\MAINLAB8\MAINLAB8\DEBUG\ITEMTOPURCHASE.OBJ
^C:\USERS\HENRY\SOURCE\REPOS\MAINLAB8\MAINLAB8\ITEMTOPURCHASE.CPP
C:\USERS\HENRY\SOURCE\REPOS\MAINLAB8\MAINLAB8\DEBUG\VC141.PDB
^C:\USERS\HENRY\SOURCE\REPOS\MAINLAB8\MAINLAB8\MAIN.CPP|C:\USERS\HENRY\SOURCE\REPOS\MAINLAB8\MAINLAB8\SHOPPINGCART.CPP
C:\USERS\HENRY\SOURCE\REPOS\MAINLAB8\MAINLAB8\DEBUG\VC141.PDB
C:\USERS\HENRY\SOURCE\REPOS\MAINLAB8\MAINLAB8\DEBUG\VC141.IDB
C:\USERS\HENRY\SOURCE\REPOS\MAINLAB8\MAINLAB8\DEBUG\MAIN.OBJ
C:\USERS\HENRY\SOURCE\REPOS\MAINLAB8\MAINLAB8\DEBUG\SHOPPINGCART.OBJ
^C:\USERS\HENRY\SOURCE\REPOS\MAINLAB8\MAINLAB8\MAIN.CPP
C:\USERS\HENRY\SOURCE\REPOS\MAINLAB8\MAINLAB8\DEBUG\VC141.PDB
C:\USERS\HENRY\SOURCE\REPOS\MAINLAB8\MAINLAB8\DEBUG\VC141.IDB
C:\USERS\HENRY\SOURCE\REPOS\MAINLAB8\MAINLAB8\DEBUG\MAIN.OBJ
^C:\USERS\HENRY\SOURCE\REPOS\MAINLAB8\MAINLAB8\SHOPPINGCART.CPP
C:\USERS\HENRY\SOURCE\REPOS\MAINLAB8\MAINLAB8\DEBUG\VC141.PDB
C:\USERS\HENRY\SOURCE\REPOS\MAINLAB8\MAINLAB8\DEBUG\VC141.IDB
C:\USERS\HENRY\SOURCE\REPOS\MAINLAB8\MAINLAB8\DEBUG\SHOPPINGCART.OBJ
