^C:\USERS\HENRY\SOURCE\REPOS\MAINLAB8\MAINLAB8\DEBUG\ITEMTOPURCHASE.OBJ|C:\USERS\HENRY\SOURCE\REPOS\MAINLAB8\MAINLAB8\DEBUG\MAIN.OBJ|C:\USERS\HENRY\SOURCE\REPOS\MAINLAB8\MAINLAB8\DEBUG\SHOPPINGCART.OBJ
C:\USERS\HENRY\SOURCE\REPOS\MAINLAB8\DEBUG\MAINLAB8.EXE
C:\USERS\HENRY\SOURCE\REPOS\MAINLAB8\DEBUG\MAINLAB8.ILK
C:\USERS\HENRY\SOURCE\REPOS\MAINLAB8\DEBUG\MAINLAB8.PDB
